%YAML 1.1
%TAG !u! tag:unity3d.com,2011:
--- !u!1045 &1
EditorBuildSettings:
  m_ObjectHideFlags: 0
  serializedVersion: 2
  m_Scenes:
  - enabled: 1
    path: Assets/Scene/Main Menu.unity
    guid: 39f88f54cc9d55a4a8529c6b9092a96a
  - enabled: 1
    path: Assets/Scene/Level 1.unity
    guid: d28233adcb1d3fc4599aafc062faa23a
  - enabled: 1
    path: Assets/Scene/Level 2.unity
    guid: d07d04d810a2f8f41bbd5a2f9badd42a
  - enabled: 1
    path: Assets/Scene/Level 3.unity
    guid: e19302b80b3c48741904baa0d87689c0
  - enabled: 1
    path: Assets/Scene/Fail Screen.unity
    guid: bfe051a14a7211f4fa2fa3078b1c7462
  - enabled: 1
    path: Assets/Scene/Success Screen.unity
    guid: 3cc7c5f412c57e04faaf3960815d3619
